%YAML 1.1
%TAG !u! tag:unity3d.com,2011:
--- !u!134 &13400000
PhysicMaterial:
  m_ObjectHideFlags: 0
  m_PrefabParentObject: {fileID: 0}
  m_PrefabInternal: {fileID: 0}
  m_Name: Ball
  dynamicFriction: .600000024
  staticFriction: .600000024
  bounciness: .800000012
  frictionCombine: 3
  bounceCombine: 0
  frictionDirection2: {x: 0, y: 0, z: 0}
  dynamicFriction2: 0
  staticFriction2: 0
